[ "130196789",
  "130247332",
  "091835380",
  "091767040",
  "175792399",
  null,
  "328004219",
  "092056725",
  "368638324",
  "192298208",
  "336771126",
  "167388452",
  "15652614X",
  "184975166",
  "130152188",
  "625721551",
  "508330742",
  "320642984",
  "184100259",
  "169540014",
  "333879317",
  "320441180",
  "220756856",
  "16766820X",
  "166829404",
  "167641379",
  "167482092",
  "167510886",
  "167407759",
  "129946184",
  "167600389",
  "130273406",
  "13027352X",
  "165976209",
  "14528364X",
  "167633864",
  "130738344",
  "167788094",
  "129846163",
  "053032241",
  "145493202",
  "142502561",
  "185719759",
  "153372583",
  "775026832",
  "775037974",
  "368639258",
  "151122644",
  "142502626",
  "166829463",
  "246233613",
  "557667895",
  "148604064",
  "182409384",
  "147569133",
  "146422953",
  "130778192",
  "167900420",
  "50833103X",
  "166782416",
  "365148032",
  "167900447",
  "16680455X",
  "171313933",
  "230696058",
  "130793744",
  "182780708",
  "170663582",
  "164087176",
  "130273589",
  "166782424",
  "138202419",
  "225951037",
  null,
  "166811904",
  null,
  "147185378",
  "171313941",
  "16945472X",
  "332131335",
  "167694669",
  "308442105",
  "143548379",
  "139874046",
  "129906204",
  "130144002",
  "150079826",
  "137665598",
  "27043206X",
  "146423003",
  "167694677",
  "130144835",
  "129907553",
  "130100366",
  "212966081",
  "225951045",
  "130143979",
  "147678048",
  "142162868",
  "146423054",
  "146422767",
  "245268367",
  "248494953",
  "774979143",
  "166893242",
  "129902020",
  "167549006",
  null,
  "146423070",
  "129895687",
  "068149263",
  "129511803",
  "236229133",
  "775052450",
  "774964812",
  "167457748",
  "166778303",
  "167520466",
  "21877382X",
  "130219517",
  "167657836",
  "166778311",
  "129900826",
  "456727213",
  "49056691X",
  "166809446",
  "642887764",
  "130146706",
  "169129616",
  "167345796",
  "130260932",
  "142503185",
  "13015380X",
  "167435027",
  "134027353",
  "226097706",
  "169415864",
  "166880981",
  "138690790",
  "167396978",
  "130202975",
  "14749205X",
  "456397973",
  "102832846X",
  "130725927",
  "167442961",
  "167530577",
  "170272931",
  "170503836",
  "167598937",
  "16688099X",
  "194766721",
  "775045594",
  "167586920",
  "169436705",
  "167401106",
  "130203394",
  "167583220",
  "393237540",
  "188061983",
  "271350245",
  "170428192",
  "16747068X",
  "166788759",
  "169129594",
  "169129586",
  "588781924",
  "167575716",
  null,
  "486543471",
  "130152439",
  null,
  "167431390",
  null,
  "609778099",
  "19628872X",
  "188142223",
  "166822558",
  "166774634",
  "774993162",
  "169863367X",
  null,
  "167588737",
  "168019426",
  "395972973",
  "167464817",
  "136911307",
  "212627619",
  "142361917",
  "130245186",
  "16743165X",
  "130248444",
  "216192757",
  "138813493",
  "184766133",
  "775022160",
  "130191205",
  "165642165",
  "166912476",
  "229244025",
  "130846619",
  "319732975",
  "187075379",
  null,
  "170782867",
  null,
  "301891370",
  "130182346",
  "129819492",
  "130153788",
  "167478745",
  "787834149",
  "188061096",
  "198407882",
  "170306801",
  "225913518",
  "225410788",
  "390796956",
  "133235319",
  "311918115",
  "216853826",
  "222792663",
  "130771104",
  "16682254X",
  "167898671",
  null,
  "41179597X",
  "167397133",
  "252694465",
  "166826650",
  "167899635",
  "14744506X",
  null,
  "557723809",
  "167496425",
  "130396524",
  "170428206",
  null,
  null,
  "167409263",
  null,
  "130141291",
  "240417054",
  "167634224",
  "188062084",
  "608492752",
  "129845485",
  "170651614",
  "167494937",
  "626760860",
  "15713248X",
  "188062076",
  "320449815",
  "372368271",
  "167560654",
  null,
  "130169153",
  "30189003X",
  "069352836",
  "166819689",
  "25269452X",
  "837917239",
  "231006446",
  "266020690",
  "167899058",
  "190436220",
  "137532121",
  "130209414",
  null,
  "317815423",
  "069415056",
  "646260170",
  "167522426",
  "151527504",
  "166809470",
  "60569382X",
  "068166699",
  "069160074",
  "237694301",
  "067883745",
  "069992959",
  "130196681",
  "167363646",
  "167356186",
  "452223636",
  "06791649X",
  "364774339",
  "715288873",
  "188068627",
  "069974977",
  "390960713",
  "068633009",
  null,
  "389403687",
  "319942589",
  "776039016",
  "167899619",
  null,
  "165779438",
  "265523176",
  "130246352",
  "387250832",
  "129516597",
  null,
  "265560403",
  "130173223",
  "387222847",
  "166608475",
  "129060178",
  "167389335",
  null,
  "167556835",
  "167648799",
  "380053381",
  "512845697",
  "430915276",
  null,
  "130420026",
  "168280078",
  null,
  "166364762",
  "321325273",
  "169396452",
  "18939255X",
  "166615242",
  "167538713",
  "169105520",
  "170591794",
  "130238309",
  "182951952",
  "557540895",
  "166817821",
  "167431633",
  null,
  "141543671",
  "150357818",
  null,
  "170741915",
  "14147310X",
  "143213350",
  "167587242",
  "248213296",
  "235470066",
  "232200548",
  "520199170",
  "130436259",
  "130090271",
  "300900384",
  "13015105X",
  "211588628",
  null,
  "270129243",
  "194184870",
  "314732780",
  "130353973",
  "303255781",
  "233820051",
  "12953952X",
  "167356194",
  "300900430"
]
